<?xml version="1.0" encoding="iso-8859-1"?>
<!-- Generator: Adobe Illustrator 19.0.0, SVG Export Plug-In . SVG Version: 6.00 Build 0)  -->
<svg version="1.1" id="Capa_1" xmlns="http://www.w3.org/2000/svg" xmlns:xlink="http://www.w3.org/1999/xlink" x="0px" y="0px"
	 viewBox="0 0 430 430" style="enable-background:new 0 0 430 430;" xml:space="preserve">
<g id="XMLID_24_">
	<path id="XMLID_493_" d="M0,40v290h170v30h-65v30h220v-30h-65v-30h170V40H0z M400,85v200H30V85H400z"/>
	<path id="XMLID_496_" d="M310.155,250.032c8.608-3.353,15.971-8.085,22.085-14.198c6.112-6.113,10.811-13.474,14.098-22.085
		c3.285-8.607,4.93-18.239,4.93-28.886c0-9.595-1.479-18.634-4.438-27.114c-2.957-8.479-7.363-15.872-13.21-22.183
		c-5.851-6.31-13.113-11.304-21.789-14.986c-8.677-3.679-18.801-5.521-30.366-5.521h-52.254v140h52.254
		C291.979,255.06,301.544,253.385,310.155,250.032z M261.548,143.454h19.917c5.782,0,10.974,0.986,15.578,2.958
		c4.599,1.973,8.478,4.801,11.634,8.48c3.154,3.682,5.551,8.054,7.197,13.113c1.642,5.061,2.464,10.681,2.464,16.859
		c0,6.048-0.822,11.603-2.464,16.661c-1.646,5.062-4.013,9.465-7.1,13.212c-3.091,3.746-6.935,6.673-11.536,8.774
		c-4.602,2.105-9.859,3.155-15.773,3.155h-19.917V143.454z"/>
	<polygon id="XMLID_500_" points="111.07,197.619 166.874,197.619 166.874,255 199.211,255 199.211,115 166.874,115 
		166.874,169.225 111.07,169.225 111.07,115 78.732,115 78.732,255 111.07,255 	"/>
</g>
<g>
</g>
<g>
</g>
<g>
</g>
<g>
</g>
<g>
</g>
<g>
</g>
<g>
</g>
<g>
</g>
<g>
</g>
<g>
</g>
<g>
</g>
<g>
</g>
<g>
</g>
<g>
</g>
<g>
</g>
</svg>
